{
    "parent_navigation_id": "help",
    "display_order": 1000,
    "link": "disable-email",
    "icon": "",
    "admin_permission_id": "option",
    "debug_only": false,
    "development_only": false,
    "hide_no_children": false
}