{
    "template": "_media_site_embed_pinterest",
    "description": "Add box to s9e Pinterest",
    "execution_order": 10,
    "enabled": true,
    "action": "str_replace",
    "find": "<iframe data-s9e-mediaembed=\"pinterest\" allowfullscreen=\"\" onload=\"var c=new MessageChannel;c.port1.onmessage=function(e){style.height=e.data+'px'};contentWindow.postMessage('s9e:init','https://s9e.github.io',[c.port2])\" scrolling=\"no\" src=\"https://s9e.github.io/iframe/2/pinterest.min.html#{$id}\" data-s9e-mediaembed-api=\"2\" style=\"height:360px;max-width:{{ contains($id,'/') ? '730' : '345' }}px\"></iframe>",
    "replace": "<xf:css src=\"at_gdpr_overlay.less\"  />\n<xf:include template=\"at_gdpr_overlay_js\" />\n<div class=\"bbMediaWrapper GDPR\">\n\t<div class=\"bbMediaWrapper_trigger\">\n\t\t<p>{{ phrase('at_gdpr_s9e_pinterest', {'privacyPolicyUrl': $xf.privacyPolicyUrl}) }}</p>\n\t\t<input type=\"button\" value=\"{{ phrase('accept') }}\" />\n\t</div>\n\t<div class=\"bbMediaWrapper-inner\">\n\t\t$0\n\t</div>\n</div>"
}