{
    "template": "_media_site_embed_applemusic",
    "description": "Add box to applemusic",
    "execution_order": 10,
    "enabled": true,
    "action": "str_replace",
    "find": "<div class=\"bbMediaWrapper\">",
    "replace": "<xf:css src=\"at_gdpr_overlay.less\"  />\n<xf:include template=\"at_gdpr_overlay_js\" />\n<div class=\"bbMediaWrapper GDPR\">\n\t<div class=\"bbMediaWrapper_trigger\">\n\t\t<p>{{ phrase('at_gdpr_applemusic', {'privacyPolicyUrl': $xf.privacyPolicyUrl}) }}</p>\n\t\t<input type=\"button\" value=\"{{ phrase('accept') }}\" />\n\t</div>"
}