{
    "template": "_media_site_embed_spotify",
    "description": "Add box to s9e spotify",
    "execution_order": 10,
    "enabled": true,
    "action": "str_replace",
    "find": "<span data-s9e-mediaembed=\"spotify\" style=\"max-width:400px\"><span style=\"padding-bottom:100%\"><iframe allow=\"encrypted-media\" allowfullscreen=\"\" scrolling=\"no\" src=\"https://open.spotify.com/embed/{$id|replace(':','/')}{$path}\"></iframe></span></span>",
    "replace": "<xf:css src=\"at_gdpr_overlay.less\"  />\n<xf:include template=\"at_gdpr_overlay_js\" />\n<div class=\"bbMediaWrapper GDPR\">\n\t<div class=\"bbMediaWrapper_trigger\">\n\t\t<p>{{ phrase('at_gdpr_s9e_spotify', {'privacyPolicyUrl': $xf.privacyPolicyUrl}) }}</p>\n\t\t<input type=\"button\" value=\"{{ phrase('accept') }}\" />\n\t</div>\n\t<div class=\"bbMediaWrapper-inner\">\n\t\t$0\n\t</div>\n</div>"
}